<?xml version="1.0" encoding="UTF-8" standalone="no"?>
<graphml xmlns="http://graphml.graphdrawing.org/xmlns" xmlns:java="http://www.yworks.com/xml/yfiles-common/1.0/java" xmlns:sys="http://www.yworks.com/xml/yfiles-common/markup/primitives/2.0" xmlns:x="http://www.yworks.com/xml/yfiles-common/markup/2.0" xmlns:xsi="http://www.w3.org/2001/XMLSchema-instance" xmlns:y="http://www.yworks.com/xml/graphml" xmlns:yed="http://www.yworks.com/xml/yed/3" xsi:schemaLocation="http://graphml.graphdrawing.org/xmlns http://www.yworks.com/xml/schema/graphml/1.1/ygraphml.xsd">
  <!--Created by yEd 3.21.1-->
  <key for="port" id="d0" yfiles.type="portgraphics"/>
  <key for="port" id="d1" yfiles.type="portgeometry"/>
  <key for="port" id="d2" yfiles.type="portuserdata"/>
  <key attr.name="yed.palette.node.name" attr.type="string" for="node" id="d3"/>
  <key attr.name="Palette ToolTip" attr.type="string" for="node" id="d4"/>
  <key attr.name="url" attr.type="string" for="node" id="d5"/>
  <key attr.name="description" attr.type="string" for="node" id="d6"/>
  <key for="node" id="d7" yfiles.type="nodegraphics"/>
  <key for="graphml" id="d8" yfiles.type="resources"/>
  <key attr.name="yed.palette.edge.name" attr.type="string" for="edge" id="d9"/>
  <key attr.name="Palette ToolTip" attr.type="string" for="edge" id="d10"/>
  <key attr.name="url" attr.type="string" for="edge" id="d11"/>
  <key attr.name="description" attr.type="string" for="edge" id="d12"/>
  <key for="edge" id="d13" yfiles.type="edgegraphics"/>
  <graph edgedefault="directed" id="G">
    <node id="n0">
      <data key="d3" xml:space="preserve"><![CDATA[73174c5c-3cb5-412d-b8f9-7e17478b5b8e]]></data>
      <data key="d4" xml:space="preserve"/>
      <data key="d7">
        <y:SVGNode>
          <y:Geometry height="46.0" width="50.0" x="0.0" y="30.0"/>
          <y:Fill color="#CCCCFF" transparent="false"/>
          <y:BorderStyle color="#000000" type="line" width="1.0"/>
          <y:NodeLabel alignment="center" autoSizePolicy="content" fontFamily="Dialog" fontSize="12" fontStyle="plain" hasBackgroundColor="false" hasLineColor="false" hasText="false" height="4.0" horizontalTextPosition="center" iconTextGap="4" modelName="sandwich" modelPosition="s" textColor="#000000" verticalTextPosition="bottom" visible="true" width="4.0" x="23.0" y="50.0"/>
          <y:SVGNodeProperties usingVisualBounds="true"/>
          <y:SVGModel svgBoundsPolicy="0">
            <y:SVGContent refid="1"/>
          </y:SVGModel>
        </y:SVGNode>
      </data>
    </node>
  </graph>
  <data key="d8">
    <y:Resources>
      <y:Resource id="1" xml:space="preserve">&lt;?xml version="1.0" encoding="utf-8"?&gt;
&lt;!-- Generator: Adobe Illustrator 23.0.3, SVG Export Plug-In . SVG Version: 6.00 Build 0)  --&gt;
&lt;svg version="1.1" id="Layer_1" xmlns="http://www.w3.org/2000/svg" xmlns:xlink="http://www.w3.org/1999/xlink" x="0px" y="0px"
	 width="50px" height="50px" viewBox="0 0 50 50" enable-background="new 0 0 50 50" xml:space="preserve"&gt;
&lt;path fill="#3E3E3E" d="M44,50H6c-3.314,0-6-2.686-6-6V4h50v40C50,47.314,47.314,50,44,50z"/&gt;
&lt;rect x="4" y="34" fill="#804998" width="23" height="12"/&gt;
&lt;rect x="4" y="4" fill="#804998" width="7" height="12"/&gt;
&lt;rect x="4" y="4" opacity="0.2" fill="#FFFFFF" enable-background="new    " width="7" height="2"/&gt;
&lt;rect x="14" y="4" fill="#E5E5E5" width="11" height="12"/&gt;
&lt;rect x="14" y="4" opacity="0.2" fill="#FFFFFF" enable-background="new    " width="11" height="2"/&gt;
&lt;rect x="28" y="4" fill="#804998" width="4" height="12"/&gt;
&lt;rect x="28" y="4" opacity="0.2" fill="#FFFFFF" enable-background="new    " width="4" height="2"/&gt;
&lt;rect x="35" y="4" fill="#59B4D9" width="11" height="12"/&gt;
&lt;rect x="35" y="4" opacity="0.2" fill="#FFFFFF" enable-background="new    " width="11" height="2"/&gt;
&lt;rect x="4" y="34" opacity="0.2" fill="#FFFFFF" enable-background="new    " width="23" height="2"/&gt;
&lt;rect x="30" y="34" fill="#59B4D9" width="16" height="12"/&gt;
&lt;rect x="30" y="34" opacity="0.2" fill="#FFFFFF" enable-background="new    " width="16" height="2"/&gt;
&lt;rect x="23" y="19" fill="#E5E5E5" width="23" height="12"/&gt;
&lt;rect x="23" y="19" transform="matrix(-1 -4.484203e-11 4.484203e-11 -1 69 40)" opacity="0.2" fill="#FFFFFF" enable-background="new    " width="23" height="2"/&gt;
&lt;rect x="4" y="19" fill="#59B4D9" width="16" height="12"/&gt;
&lt;rect x="4" y="19" transform="matrix(-1 -4.502011e-11 4.502011e-11 -1 24 40)" opacity="0.2" fill="#FFFFFF" enable-background="new    " width="16" height="2"/&gt;
&lt;path opacity="0.15" fill="#FFFFFF" enable-background="new    " d="M6,50h2.696L40.081,4H0v40C0,47.314,2.686,50,6,50z"/&gt;
&lt;/svg&gt;
</y:Resource>
    </y:Resources>
  </data>
</graphml>
